Private,Family,cellular,Email,Coutnry,Weekend Date
שמעון,ארליך,050-8855182,erlico111@jmail.com,Israel,01/04/2006
יואב,שולב,054-4922201,toavsholev@gmail.com,Israel,01/04/2006
מוטי,ברנד,050-6263141,mordechaybr@clalit.org.il,Israel,01/04/2006
שרית,לאריש,054-4314671,s_larisch@rambam.health.gov.il,Israel,01/04/2006
