Private,cellular,Email,Coutnry,Weekend Date,Family
שמעון,050-8855182,erlico111@jmail.com,Israel,2006-04-01,ארליך
יואב,054-4922201, toavsholev@gmail.com,Israel,2006-04-01,שולב
מוטי,050-6263141,mordechaybr@clalit.org.il,Israel,2006-04-01,ברנד
שרית, 054-4314671,s_larisch@rambam.health.gov.il,Israel,2006-04-01,לאריש